module ScoutingGameSiteV2_Backend

go 1.21.0

require (
	github.com/golang-jwt/jwt/v4 v4.5.0
	github.com/gorilla/mux v1.8.0
	github.com/gorilla/websocket v1.5.1
	github.com/lib/pq v1.10.9
	github.com/stretchr/testify v1.8.4
	golang.org/x/crypto v0.14.0
)

require (
	github.com/davecgh/go-spew v1.1.1 // indirect
	github.com/pmezard/go-difflib v1.0.0 // indirect
	golang.org/x/net v0.17.0 // indirect
	gopkg.in/yaml.v3 v3.0.1 // indirect
)
